PWD /home/fredavid/Documents/git_repos/mma410-assignments-2019/ASS_3
INPUT /etc/texmf/web2c/texmf.cnf
INPUT /usr/share/texmf/web2c/texmf.cnf
INPUT /usr/share/texlive/texmf-dist/web2c/texmf.cnf
INPUT /var/lib/texmf/web2c/pdftex/pdflatex.fmt
INPUT main.tex
OUTPUT main.log
INPUT /usr/share/texlive/texmf-dist/tex/latex/base/article.cls
INPUT /usr/share/texlive/texmf-dist/tex/latex/base/article.cls
INPUT /usr/share/texlive/texmf-dist/tex/latex/base/size12.clo
INPUT /usr/share/texlive/texmf-dist/tex/latex/base/size12.clo
INPUT /usr/share/texlive/texmf-dist/fonts/map/fontname/texfonts.map
INPUT /usr/share/texlive/texmf-dist/fonts/tfm/public/cm/cmr12.tfm
INPUT ./Packages.tex
INPUT ./Packages.tex
INPUT /usr/share/texlive/texmf-dist/tex/latex/base/inputenc.sty
INPUT /usr/share/texlive/texmf-dist/tex/latex/base/inputenc.sty
INPUT /usr/share/texlive/texmf-dist/tex/latex/titlesec/titlesec.sty
INPUT /usr/share/texlive/texmf-dist/tex/latex/titlesec/titlesec.sty
INPUT /usr/share/texlive/texmf-dist/tex/latex/amsmath/amsmath.sty
INPUT /usr/share/texlive/texmf-dist/tex/latex/amsmath/amsmath.sty
INPUT /usr/share/texlive/texmf-dist/tex/latex/amsmath/amstext.sty
INPUT /usr/share/texlive/texmf-dist/tex/latex/amsmath/amstext.sty
INPUT /usr/share/texlive/texmf-dist/tex/latex/amsmath/amsgen.sty
INPUT /usr/share/texlive/texmf-dist/tex/latex/amsmath/amsgen.sty
INPUT /usr/share/texlive/texmf-dist/tex/latex/amsmath/amsbsy.sty
INPUT /usr/share/texlive/texmf-dist/tex/latex/amsmath/amsbsy.sty
INPUT /usr/share/texlive/texmf-dist/tex/latex/amsmath/amsopn.sty
INPUT /usr/share/texlive/texmf-dist/tex/latex/amsmath/amsopn.sty
INPUT /usr/share/texlive/texmf-dist/tex/latex/amscls/amsthm.sty
INPUT /usr/share/texlive/texmf-dist/tex/latex/amscls/amsthm.sty
INPUT /usr/share/texlive/texmf-dist/tex/latex/amsfonts/amsfonts.sty
INPUT /usr/share/texlive/texmf-dist/tex/latex/amsfonts/amsfonts.sty
INPUT /usr/share/texlive/texmf-dist/tex/latex/amsfonts/amssymb.sty
INPUT /usr/share/texlive/texmf-dist/tex/latex/amsfonts/amssymb.sty
INPUT /usr/share/texlive/texmf-dist/tex/latex/amsmath/amscd.sty
INPUT /usr/share/texlive/texmf-dist/tex/latex/amsmath/amscd.sty
INPUT /usr/share/texlive/texmf-dist/tex/latex/multirow/multirow.sty
INPUT /usr/share/texlive/texmf-dist/tex/latex/multirow/multirow.sty
INPUT /usr/share/texlive/texmf-dist/tex/latex/booktabs/booktabs.sty
INPUT /usr/share/texlive/texmf-dist/tex/latex/booktabs/booktabs.sty
INPUT /usr/share/texlive/texmf-dist/tex/latex/xcolor/xcolor.sty
INPUT /usr/share/texlive/texmf-dist/tex/latex/xcolor/xcolor.sty
INPUT /usr/share/texlive/texmf-dist/tex/latex/graphics-cfg/color.cfg
INPUT /usr/share/texlive/texmf-dist/tex/latex/graphics-cfg/color.cfg
INPUT /usr/share/texlive/texmf-dist/tex/latex/graphics-def/pdftex.def
INPUT /usr/share/texlive/texmf-dist/tex/latex/graphics-def/pdftex.def
INPUT /usr/share/texlive/texmf-dist/tex/latex/colortbl/colortbl.sty
INPUT /usr/share/texlive/texmf-dist/tex/latex/colortbl/colortbl.sty
INPUT /usr/share/texlive/texmf-dist/tex/latex/tools/array.sty
INPUT /usr/share/texlive/texmf-dist/tex/latex/tools/array.sty
INPUT /usr/share/texlive/texmf-dist/tex/latex/graphics/graphicx.sty
INPUT /usr/share/texlive/texmf-dist/tex/latex/graphics/graphicx.sty
INPUT /usr/share/texlive/texmf-dist/tex/latex/graphics/keyval.sty
INPUT /usr/share/texlive/texmf-dist/tex/latex/graphics/keyval.sty
INPUT /usr/share/texlive/texmf-dist/tex/latex/graphics/graphics.sty
INPUT /usr/share/texlive/texmf-dist/tex/latex/graphics/graphics.sty
INPUT /usr/share/texlive/texmf-dist/tex/latex/graphics/trig.sty
INPUT /usr/share/texlive/texmf-dist/tex/latex/graphics/trig.sty
INPUT /usr/share/texlive/texmf-dist/tex/latex/graphics-cfg/graphics.cfg
INPUT /usr/share/texlive/texmf-dist/tex/latex/graphics-cfg/graphics.cfg
INPUT /usr/share/texlive/texmf-dist/tex/latex/preprint/fullpage.sty
INPUT /usr/share/texlive/texmf-dist/tex/latex/preprint/fullpage.sty
INPUT /usr/share/texlive/texmf-dist/tex/latex/lastpage/lastpage.sty
INPUT /usr/share/texlive/texmf-dist/tex/latex/lastpage/lastpage.sty
INPUT /usr/share/texlive/texmf-dist/tex/latex/enumitem/enumitem.sty
INPUT /usr/share/texlive/texmf-dist/tex/latex/enumitem/enumitem.sty
INPUT /usr/share/texlive/texmf-dist/tex/latex/fancyhdr/fancyhdr.sty
INPUT /usr/share/texlive/texmf-dist/tex/latex/fancyhdr/fancyhdr.sty
INPUT /usr/share/texlive/texmf-dist/tex/latex/jknapltx/mathrsfs.sty
INPUT /usr/share/texlive/texmf-dist/tex/latex/jknapltx/mathrsfs.sty
INPUT /usr/share/texlive/texmf-dist/tex/latex/polynom/polynom.sty
INPUT /usr/share/texlive/texmf-dist/tex/latex/polynom/polynom.sty
INPUT /usr/share/texlive/texmf-dist/tex/latex/wrapfig/wrapfig.sty
INPUT /usr/share/texlive/texmf-dist/tex/latex/wrapfig/wrapfig.sty
INPUT /usr/share/texlive/texmf-dist/tex/latex/setspace/setspace.sty
INPUT /usr/share/texlive/texmf-dist/tex/latex/setspace/setspace.sty
INPUT /usr/share/texlive/texmf-dist/tex/latex/tools/calc.sty
INPUT /usr/share/texlive/texmf-dist/tex/latex/tools/calc.sty
INPUT /usr/share/texlive/texmf-dist/tex/latex/tools/multicol.sty
INPUT /usr/share/texlive/texmf-dist/tex/latex/tools/multicol.sty
INPUT /usr/share/texlive/texmf-dist/tex/latex/cancel/cancel.sty
INPUT /usr/share/texlive/texmf-dist/tex/latex/cancel/cancel.sty
INPUT /usr/share/texlive/texmf-dist/tex/latex/IEEEtran/IEEEtrantools.sty
INPUT /usr/share/texlive/texmf-dist/tex/latex/IEEEtran/IEEEtrantools.sty
INPUT /usr/share/texlive/texmf-dist/tex/latex/geometry/geometry.sty
INPUT /usr/share/texlive/texmf-dist/tex/latex/geometry/geometry.sty
INPUT /usr/share/texlive/texmf-dist/tex/generic/oberdiek/ifpdf.sty
INPUT /usr/share/texlive/texmf-dist/tex/generic/oberdiek/ifpdf.sty
INPUT /usr/share/texlive/texmf-dist/tex/generic/oberdiek/ifvtex.sty
INPUT /usr/share/texlive/texmf-dist/tex/generic/oberdiek/ifvtex.sty
INPUT /usr/share/texlive/texmf-dist/tex/generic/ifxetex/ifxetex.sty
INPUT /usr/share/texlive/texmf-dist/tex/generic/ifxetex/ifxetex.sty
INPUT /usr/share/texlive/texmf-dist/tex/latex/mathtools/empheq.sty
INPUT /usr/share/texlive/texmf-dist/tex/latex/mathtools/empheq.sty
INPUT /usr/share/texlive/texmf-dist/tex/latex/mathtools/mhsetup.sty
INPUT /usr/share/texlive/texmf-dist/tex/latex/mathtools/mhsetup.sty
INPUT /usr/share/texlive/texmf-dist/tex/latex/mathtools/mathtools.sty
INPUT /usr/share/texlive/texmf-dist/tex/latex/mathtools/mathtools.sty
INPUT /usr/share/texlive/texmf-dist/tex/latex/framed/framed.sty
INPUT /usr/share/texlive/texmf-dist/tex/latex/framed/framed.sty
INPUT /usr/share/texlive/texmf-dist/tex/latex/tcolorbox/tcolorbox.sty
INPUT /usr/share/texlive/texmf-dist/tex/latex/tcolorbox/tcolorbox.sty
INPUT /usr/share/texlive/texmf-dist/tex/latex/pgf/basiclayer/pgf.sty
INPUT /usr/share/texlive/texmf-dist/tex/latex/pgf/basiclayer/pgf.sty
INPUT /usr/share/texlive/texmf-dist/tex/latex/pgf/utilities/pgfrcs.sty
INPUT /usr/share/texlive/texmf-dist/tex/latex/pgf/utilities/pgfrcs.sty
INPUT /usr/share/texlive/texmf-dist/tex/generic/pgf/utilities/pgfutil-common.tex
INPUT /usr/share/texlive/texmf-dist/tex/generic/pgf/utilities/pgfutil-common-lists.tex
INPUT /usr/share/texlive/texmf-dist/tex/generic/pgf/utilities/pgfutil-latex.def
INPUT /usr/share/texlive/texmf-dist/tex/latex/ms/everyshi.sty
INPUT /usr/share/texlive/texmf-dist/tex/latex/ms/everyshi.sty
INPUT /usr/share/texlive/texmf-dist/tex/generic/pgf/utilities/pgfrcs.code.tex
INPUT /usr/share/texlive/texmf-dist/tex/generic/pgf/utilities/pgfrcs.code.tex
INPUT /usr/share/texlive/texmf-dist/tex/generic/pgf/pgf.revision.tex
INPUT /usr/share/texlive/texmf-dist/tex/generic/pgf/pgf.revision.tex
INPUT /usr/share/texlive/texmf-dist/tex/latex/pgf/basiclayer/pgfcore.sty
INPUT /usr/share/texlive/texmf-dist/tex/latex/pgf/basiclayer/pgfcore.sty
INPUT /usr/share/texlive/texmf-dist/tex/latex/pgf/systemlayer/pgfsys.sty
INPUT /usr/share/texlive/texmf-dist/tex/latex/pgf/systemlayer/pgfsys.sty
INPUT /usr/share/texlive/texmf-dist/tex/generic/pgf/systemlayer/pgfsys.code.tex
INPUT /usr/share/texlive/texmf-dist/tex/generic/pgf/systemlayer/pgfsys.code.tex
INPUT /usr/share/texlive/texmf-dist/tex/generic/pgf/utilities/pgfkeys.code.tex
INPUT /usr/share/texlive/texmf-dist/tex/generic/pgf/utilities/pgfkeysfiltered.code.tex
INPUT /usr/share/texlive/texmf-dist/tex/generic/pgf/systemlayer/pgf.cfg
INPUT /usr/share/texlive/texmf-dist/tex/generic/pgf/systemlayer/pgfsys-pdftex.def
INPUT /usr/share/texlive/texmf-dist/tex/generic/pgf/systemlayer/pgfsys-pdftex.def
INPUT /usr/share/texlive/texmf-dist/tex/generic/pgf/systemlayer/pgfsys-common-pdf.def
INPUT /usr/share/texlive/texmf-dist/tex/generic/pgf/systemlayer/pgfsyssoftpath.code.tex
INPUT /usr/share/texlive/texmf-dist/tex/generic/pgf/systemlayer/pgfsyssoftpath.code.tex
INPUT /usr/share/texlive/texmf-dist/tex/generic/pgf/systemlayer/pgfsysprotocol.code.tex
INPUT /usr/share/texlive/texmf-dist/tex/generic/pgf/systemlayer/pgfsysprotocol.code.tex
INPUT /usr/share/texlive/texmf-dist/tex/generic/pgf/basiclayer/pgfcore.code.tex
INPUT /usr/share/texlive/texmf-dist/tex/generic/pgf/basiclayer/pgfcore.code.tex
INPUT /usr/share/texlive/texmf-dist/tex/generic/pgf/math/pgfmath.code.tex
INPUT /usr/share/texlive/texmf-dist/tex/generic/pgf/math/pgfmathcalc.code.tex
INPUT /usr/share/texlive/texmf-dist/tex/generic/pgf/math/pgfmathutil.code.tex
INPUT /usr/share/texlive/texmf-dist/tex/generic/pgf/math/pgfmathparser.code.tex
INPUT /usr/share/texlive/texmf-dist/tex/generic/pgf/math/pgfmathfunctions.code.tex
INPUT /usr/share/texlive/texmf-dist/tex/generic/pgf/math/pgfmathfunctions.basic.code.tex
INPUT /usr/share/texlive/texmf-dist/tex/generic/pgf/math/pgfmathfunctions.trigonometric.code.tex
INPUT /usr/share/texlive/texmf-dist/tex/generic/pgf/math/pgfmathfunctions.random.code.tex
INPUT /usr/share/texlive/texmf-dist/tex/generic/pgf/math/pgfmathfunctions.comparison.code.tex
INPUT /usr/share/texlive/texmf-dist/tex/generic/pgf/math/pgfmathfunctions.base.code.tex
INPUT /usr/share/texlive/texmf-dist/tex/generic/pgf/math/pgfmathfunctions.round.code.tex
INPUT /usr/share/texlive/texmf-dist/tex/generic/pgf/math/pgfmathfunctions.misc.code.tex
INPUT /usr/share/texlive/texmf-dist/tex/generic/pgf/math/pgfmathfunctions.integerarithmetics.code.tex
INPUT /usr/share/texlive/texmf-dist/tex/generic/pgf/math/pgfmathfloat.code.tex
INPUT /usr/share/texlive/texmf-dist/tex/generic/pgf/math/pgfint.code.tex
INPUT /usr/share/texlive/texmf-dist/tex/generic/pgf/basiclayer/pgfcorepoints.code.tex
INPUT /usr/share/texlive/texmf-dist/tex/generic/pgf/basiclayer/pgfcorepathconstruct.code.tex
INPUT /usr/share/texlive/texmf-dist/tex/generic/pgf/basiclayer/pgfcorepathusage.code.tex
INPUT /usr/share/texlive/texmf-dist/tex/generic/pgf/basiclayer/pgfcorescopes.code.tex
INPUT /usr/share/texlive/texmf-dist/tex/generic/pgf/basiclayer/pgfcoregraphicstate.code.tex
INPUT /usr/share/texlive/texmf-dist/tex/generic/pgf/basiclayer/pgfcoretransformations.code.tex
INPUT /usr/share/texlive/texmf-dist/tex/generic/pgf/basiclayer/pgfcorequick.code.tex
INPUT /usr/share/texlive/texmf-dist/tex/generic/pgf/basiclayer/pgfcoreobjects.code.tex
INPUT /usr/share/texlive/texmf-dist/tex/generic/pgf/basiclayer/pgfcorepathprocessing.code.tex
INPUT /usr/share/texlive/texmf-dist/tex/generic/pgf/basiclayer/pgfcorearrows.code.tex
INPUT /usr/share/texlive/texmf-dist/tex/generic/pgf/basiclayer/pgfcoreshade.code.tex
INPUT /usr/share/texlive/texmf-dist/tex/generic/pgf/basiclayer/pgfcoreimage.code.tex
INPUT /usr/share/texlive/texmf-dist/tex/generic/pgf/basiclayer/pgfcoreexternal.code.tex
INPUT /usr/share/texlive/texmf-dist/tex/generic/pgf/basiclayer/pgfcorelayers.code.tex
INPUT /usr/share/texlive/texmf-dist/tex/generic/pgf/basiclayer/pgfcoretransparency.code.tex
INPUT /usr/share/texlive/texmf-dist/tex/generic/pgf/basiclayer/pgfcorepatterns.code.tex
INPUT /usr/share/texlive/texmf-dist/tex/generic/pgf/basiclayer/pgfcorerdf.code.tex
INPUT /usr/share/texlive/texmf-dist/tex/generic/pgf/modules/pgfmoduleshapes.code.tex
INPUT /usr/share/texlive/texmf-dist/tex/generic/pgf/modules/pgfmoduleplot.code.tex
INPUT /usr/share/texlive/texmf-dist/tex/latex/pgf/compatibility/pgfcomp-version-0-65.sty
INPUT /usr/share/texlive/texmf-dist/tex/latex/pgf/compatibility/pgfcomp-version-0-65.sty
INPUT /usr/share/texlive/texmf-dist/tex/latex/pgf/compatibility/pgfcomp-version-1-18.sty
INPUT /usr/share/texlive/texmf-dist/tex/latex/pgf/compatibility/pgfcomp-version-1-18.sty
INPUT /usr/share/texlive/texmf-dist/tex/latex/tools/verbatim.sty
INPUT /usr/share/texlive/texmf-dist/tex/latex/tools/verbatim.sty
INPUT /usr/share/texlive/texmf-dist/tex/latex/environ/environ.sty
INPUT /usr/share/texlive/texmf-dist/tex/latex/environ/environ.sty
INPUT /usr/share/texlive/texmf-dist/tex/latex/trimspaces/trimspaces.sty
INPUT /usr/share/texlive/texmf-dist/tex/latex/trimspaces/trimspaces.sty
INPUT /usr/share/texlive/texmf-dist/tex/latex/etoolbox/etoolbox.sty
INPUT /usr/share/texlive/texmf-dist/tex/latex/etoolbox/etoolbox.sty
INPUT /usr/share/texlive/texmf-dist/tex/latex/tcolorbox/tcbraster.code.tex
INPUT /usr/share/texlive/texmf-dist/tex/latex/tcolorbox/tcbskins.code.tex
INPUT /usr/share/texlive/texmf-dist/tex/latex/pgf/frontendlayer/tikz.sty
INPUT /usr/share/texlive/texmf-dist/tex/latex/pgf/frontendlayer/tikz.sty
INPUT /usr/share/texlive/texmf-dist/tex/latex/pgf/utilities/pgffor.sty
INPUT /usr/share/texlive/texmf-dist/tex/latex/pgf/utilities/pgffor.sty
INPUT /usr/share/texlive/texmf-dist/tex/latex/pgf/utilities/pgfkeys.sty
INPUT /usr/share/texlive/texmf-dist/tex/latex/pgf/utilities/pgfkeys.sty
INPUT /usr/share/texlive/texmf-dist/tex/generic/pgf/utilities/pgfkeys.code.tex
INPUT /usr/share/texlive/texmf-dist/tex/generic/pgf/utilities/pgfkeys.code.tex
INPUT /usr/share/texlive/texmf-dist/tex/latex/pgf/math/pgfmath.sty
INPUT /usr/share/texlive/texmf-dist/tex/latex/pgf/math/pgfmath.sty
INPUT /usr/share/texlive/texmf-dist/tex/generic/pgf/math/pgfmath.code.tex
INPUT /usr/share/texlive/texmf-dist/tex/generic/pgf/math/pgfmath.code.tex
INPUT /usr/share/texlive/texmf-dist/tex/generic/pgf/utilities/pgffor.code.tex
INPUT /usr/share/texlive/texmf-dist/tex/generic/pgf/utilities/pgffor.code.tex
INPUT /usr/share/texlive/texmf-dist/tex/generic/pgf/math/pgfmath.code.tex
INPUT /usr/share/texlive/texmf-dist/tex/generic/pgf/frontendlayer/tikz/tikz.code.tex
INPUT /usr/share/texlive/texmf-dist/tex/generic/pgf/frontendlayer/tikz/tikz.code.tex
INPUT /usr/share/texlive/texmf-dist/tex/generic/pgf/libraries/pgflibraryplothandlers.code.tex
INPUT /usr/share/texlive/texmf-dist/tex/generic/pgf/libraries/pgflibraryplothandlers.code.tex
INPUT /usr/share/texlive/texmf-dist/tex/generic/pgf/modules/pgfmodulematrix.code.tex
INPUT /usr/share/texlive/texmf-dist/tex/generic/pgf/frontendlayer/tikz/libraries/tikzlibrarytopaths.code.tex
INPUT /usr/share/texlive/texmf-dist/tex/generic/pgf/frontendlayer/tikz/libraries/tikzlibrarytopaths.code.tex
INPUT /usr/share/texlive/texmf-dist/tex/latex/tcolorbox/tcbskinsjigsaw.code.tex
INPUT /usr/share/texlive/texmf-dist/tex/latex/tcolorbox/tcbbreakable.code.tex
INPUT /usr/share/texlive/texmf-dist/tex/latex/tcolorbox/tcbhooks.code.tex
INPUT /usr/share/texlive/texmf-dist/tex/latex/tcolorbox/tcbtheorems.code.tex
INPUT /usr/share/texlive/texmf-dist/tex/latex/tcolorbox/tcbfitting.code.tex
INPUT /usr/share/texlive/texmf-dist/tex/latex/tcolorbox/tcbxparse.code.tex
INPUT /usr/share/texlive/texmf-dist/tex/latex/l3packages/xparse/xparse.sty
INPUT /usr/share/texlive/texmf-dist/tex/latex/l3packages/xparse/xparse.sty
INPUT /usr/share/texlive/texmf-dist/tex/latex/l3kernel/expl3.sty
INPUT /usr/share/texlive/texmf-dist/tex/latex/l3kernel/expl3.sty
INPUT /usr/share/texlive/texmf-dist/tex/latex/l3kernel/expl3-code.tex
INPUT /usr/share/texlive/texmf-dist/tex/latex/l3kernel/expl3-code.tex
INPUT /usr/share/texlive/texmf-dist/fonts/tfm/public/cm/cmr10.tfm
INPUT /usr/share/texlive/texmf-dist/fonts/tfm/public/cm/cmr10.tfm
INPUT /usr/share/texlive/texmf-dist/fonts/tfm/public/cm/cmr10.tfm
INPUT /usr/share/texlive/texmf-dist/fonts/tfm/public/cm/cmr10.tfm
INPUT /usr/share/texlive/texmf-dist/fonts/tfm/public/cm/cmr10.tfm
INPUT /usr/share/texlive/texmf-dist/fonts/tfm/public/cm/cmr10.tfm
INPUT /usr/share/texlive/texmf-dist/fonts/tfm/public/cm/cmr10.tfm
INPUT /usr/share/texlive/texmf-dist/fonts/tfm/public/cm/cmr10.tfm
INPUT /usr/share/texlive/texmf-dist/fonts/tfm/public/cm/cmr10.tfm
INPUT /usr/share/texlive/texmf-dist/fonts/tfm/public/cm/cmr10.tfm
INPUT /usr/share/texlive/texmf-dist/tex/generic/unicode-data/UnicodeData.txt
INPUT /usr/share/texlive/texmf-dist/tex/generic/unicode-data/UnicodeData.txt
INPUT /dev/null
INPUT /usr/share/texlive/texmf-dist/tex/latex/l3backend/l3backend-pdfmode.def
INPUT /usr/share/texlive/texmf-dist/tex/latex/l3backend/l3backend-pdfmode.def
INPUT /usr/share/texlive/texmf-dist/tex/latex/tcolorbox/tcblistingsutf8.code.tex
INPUT /usr/share/texlive/texmf-dist/tex/latex/oberdiek/listingsutf8.sty
INPUT /usr/share/texlive/texmf-dist/tex/latex/oberdiek/listingsutf8.sty
INPUT /usr/share/texlive/texmf-dist/tex/latex/listings/listings.sty
INPUT /usr/share/texlive/texmf-dist/tex/latex/listings/listings.sty
INPUT /usr/share/texlive/texmf-dist/tex/latex/listings/lstmisc.sty
INPUT /usr/share/texlive/texmf-dist/tex/latex/listings/lstmisc.sty
INPUT /usr/share/texlive/texmf-dist/tex/latex/listings/listings.cfg
INPUT /usr/share/texlive/texmf-dist/tex/latex/listings/listings.cfg
INPUT /usr/share/texlive/texmf-dist/tex/generic/oberdiek/pdftexcmds.sty
INPUT /usr/share/texlive/texmf-dist/tex/generic/oberdiek/pdftexcmds.sty
INPUT /usr/share/texlive/texmf-dist/tex/generic/oberdiek/infwarerr.sty
INPUT /usr/share/texlive/texmf-dist/tex/generic/oberdiek/infwarerr.sty
INPUT /usr/share/texlive/texmf-dist/tex/generic/oberdiek/ifluatex.sty
INPUT /usr/share/texlive/texmf-dist/tex/generic/oberdiek/ifluatex.sty
INPUT /usr/share/texlive/texmf-dist/tex/generic/oberdiek/ltxcmds.sty
INPUT /usr/share/texlive/texmf-dist/tex/generic/oberdiek/ltxcmds.sty
INPUT /usr/share/texlive/texmf-dist/tex/generic/oberdiek/stringenc.sty
INPUT /usr/share/texlive/texmf-dist/tex/generic/oberdiek/stringenc.sty
INPUT /usr/share/texlive/texmf-dist/tex/generic/oberdiek/pdfescape.sty
INPUT /usr/share/texlive/texmf-dist/tex/generic/oberdiek/pdfescape.sty
INPUT /usr/share/texlive/texmf-dist/tex/latex/tcolorbox/tcblistings.code.tex
INPUT /usr/share/texlive/texmf-dist/tex/latex/tcolorbox/tcblistingscore.code.tex
INPUT /usr/share/texlive/texmf-dist/tex/latex/tcolorbox/tcbprocessing.code.tex
INPUT /usr/share/texlive/texmf-dist/tex/latex/tools/shellesc.sty
INPUT /usr/share/texlive/texmf-dist/tex/latex/tools/shellesc.sty
INPUT /usr/share/texlive/texmf-dist/tex/latex/tcolorbox/tcbexternal.code.tex
INPUT /usr/share/texlive/texmf-dist/tex/latex/tcolorbox/tcbmagazine.code.tex
INPUT /usr/share/texlive/texmf-dist/tex/latex/tcolorbox/tcbvignette.code.tex
INPUT /usr/share/texlive/texmf-dist/tex/generic/pgf/frontendlayer/tikz/libraries/tikzlibraryfadings.code.tex
INPUT /usr/share/texlive/texmf-dist/tex/generic/pgf/frontendlayer/tikz/libraries/tikzlibraryfadings.code.tex
INPUT /usr/share/texlive/texmf-dist/tex/generic/pgf/libraries/pgflibraryfadings.code.tex
INPUT /usr/share/texlive/texmf-dist/tex/generic/pgf/libraries/pgflibraryfadings.code.tex
OUTPUT main.pdf
INPUT /usr/share/texlive/texmf-dist/tex/latex/tcolorbox/tcbposter.code.tex
INPUT /usr/share/texlive/texmf-dist/tex/latex/thmtools/thmtools.sty
INPUT /usr/share/texlive/texmf-dist/tex/latex/thmtools/thmtools.sty
INPUT /usr/share/texlive/texmf-dist/tex/latex/thmtools/thm-patch.sty
INPUT /usr/share/texlive/texmf-dist/tex/latex/thmtools/thm-patch.sty
INPUT /usr/share/texlive/texmf-dist/tex/latex/thmtools/parseargs.sty
INPUT /usr/share/texlive/texmf-dist/tex/latex/thmtools/parseargs.sty
INPUT /usr/share/texlive/texmf-dist/tex/latex/thmtools/thm-kv.sty
INPUT /usr/share/texlive/texmf-dist/tex/latex/thmtools/thm-kv.sty
INPUT /usr/share/texlive/texmf-dist/tex/generic/oberdiek/kvsetkeys.sty
INPUT /usr/share/texlive/texmf-dist/tex/generic/oberdiek/kvsetkeys.sty
INPUT /usr/share/texlive/texmf-dist/tex/generic/oberdiek/etexcmds.sty
INPUT /usr/share/texlive/texmf-dist/tex/generic/oberdiek/etexcmds.sty
INPUT /usr/share/texlive/texmf-dist/tex/latex/thmtools/thm-autoref.sty
INPUT /usr/share/texlive/texmf-dist/tex/latex/thmtools/thm-autoref.sty
INPUT /usr/share/texlive/texmf-dist/tex/latex/thmtools/aliasctr.sty
INPUT /usr/share/texlive/texmf-dist/tex/latex/thmtools/aliasctr.sty
INPUT /usr/share/texlive/texmf-dist/tex/latex/carlisle/remreset.sty
INPUT /usr/share/texlive/texmf-dist/tex/latex/carlisle/remreset.sty
INPUT /usr/share/texlive/texmf-dist/tex/latex/thmtools/thm-listof.sty
INPUT /usr/share/texlive/texmf-dist/tex/latex/thmtools/thm-listof.sty
INPUT /usr/share/texlive/texmf-dist/tex/latex/thmtools/thm-restate.sty
INPUT /usr/share/texlive/texmf-dist/tex/latex/thmtools/thm-restate.sty
INPUT /usr/share/texlive/texmf-dist/tex/latex/thmtools/thm-amsthm.sty
INPUT /usr/share/texlive/texmf-dist/tex/latex/thmtools/thm-amsthm.sty
INPUT /usr/share/texlive/texmf-dist/tex/generic/ulem/ulem.sty
INPUT /usr/share/texlive/texmf-dist/tex/generic/ulem/ulem.sty
INPUT /usr/share/texlive/texmf-dist/fonts/tfm/public/latex-fonts/lasy6.tfm
INPUT /usr/share/texmf/tex/latex/CJK/CJKutf8.sty
INPUT /usr/share/texmf/tex/latex/CJK/CJKutf8.sty
INPUT /usr/share/texmf/tex/latex/CJK/CJK.sty
INPUT /usr/share/texmf/tex/latex/CJK/CJK.sty
INPUT /usr/share/texmf/tex/latex/CJK/mule/MULEenc.sty
INPUT /usr/share/texmf/tex/latex/CJK/mule/MULEenc.sty
INPUT /usr/share/texmf/tex/latex/CJK/CJK.enc
INPUT /usr/share/texlive/texmf-dist/tex/latex/base/fontenc.sty
INPUT /usr/share/texlive/texmf-dist/tex/latex/base/fontenc.sty
INPUT /usr/share/texlive/texmf-dist/tex/latex/import/import.sty
INPUT /usr/share/texlive/texmf-dist/tex/latex/import/import.sty
INPUT /usr/share/texlive/texmf-dist/tex/latex/xifthen/xifthen.sty
INPUT /usr/share/texlive/texmf-dist/tex/latex/xifthen/xifthen.sty
INPUT /usr/share/texlive/texmf-dist/tex/latex/base/ifthen.sty
INPUT /usr/share/texlive/texmf-dist/tex/latex/base/ifthen.sty
INPUT /usr/share/texlive/texmf-dist/tex/latex/ifmtarg/ifmtarg.sty
INPUT /usr/share/texlive/texmf-dist/tex/latex/ifmtarg/ifmtarg.sty
INPUT /usr/share/texlive/texmf-dist/tex/latex/pdfpages/pdfpages.sty
INPUT /usr/share/texlive/texmf-dist/tex/latex/pdfpages/pdfpages.sty
INPUT /usr/share/texlive/texmf-dist/tex/latex/eso-pic/eso-pic.sty
INPUT /usr/share/texlive/texmf-dist/tex/latex/eso-pic/eso-pic.sty
INPUT /usr/share/texlive/texmf-dist/tex/generic/oberdiek/atbegshi.sty
INPUT /usr/share/texlive/texmf-dist/tex/generic/oberdiek/atbegshi.sty
INPUT /usr/share/texlive/texmf-dist/tex/latex/pdfpages/pppdftex.def
INPUT /usr/share/texlive/texmf-dist/tex/latex/pdfpages/pppdftex.def
INPUT /usr/share/texlive/texmf-dist/tex/latex/oberdiek/transparent.sty
INPUT /usr/share/texlive/texmf-dist/tex/latex/oberdiek/transparent.sty
INPUT /usr/share/texlive/texmf-dist/tex/latex/oberdiek/auxhook.sty
INPUT /usr/share/texlive/texmf-dist/tex/latex/oberdiek/auxhook.sty
INPUT ./Style.tex
INPUT ./Style.tex
INPUT /usr/share/texlive/texmf-dist/tex/latex/hyperref/hyperref.sty
INPUT /usr/share/texlive/texmf-dist/tex/latex/hyperref/hyperref.sty
INPUT /usr/share/texlive/texmf-dist/tex/generic/oberdiek/hobsub-hyperref.sty
INPUT /usr/share/texlive/texmf-dist/tex/generic/oberdiek/hobsub-hyperref.sty
INPUT /usr/share/texlive/texmf-dist/tex/generic/oberdiek/hobsub-hyperref.sty
INPUT /usr/share/texlive/texmf-dist/tex/generic/oberdiek/hobsub-generic.sty
INPUT /usr/share/texlive/texmf-dist/tex/generic/oberdiek/hobsub-generic.sty
INPUT /usr/share/texlive/texmf-dist/tex/latex/oberdiek/kvoptions.sty
INPUT /usr/share/texlive/texmf-dist/tex/latex/oberdiek/kvoptions.sty
INPUT /usr/share/texlive/texmf-dist/tex/latex/hyperref/pd1enc.def
INPUT /usr/share/texlive/texmf-dist/tex/latex/hyperref/pd1enc.def
INPUT /usr/share/texlive/texmf-dist/tex/latex/latexconfig/hyperref.cfg
INPUT /usr/share/texlive/texmf-dist/tex/latex/latexconfig/hyperref.cfg
INPUT /usr/share/texlive/texmf-dist/tex/latex/url/url.sty
INPUT /usr/share/texlive/texmf-dist/tex/latex/url/url.sty
INPUT /usr/share/texlive/texmf-dist/tex/latex/hyperref/hpdftex.def
INPUT /usr/share/texlive/texmf-dist/tex/latex/hyperref/hpdftex.def
INPUT /usr/share/texlive/texmf-dist/tex/latex/oberdiek/rerunfilecheck.sty
INPUT /usr/share/texlive/texmf-dist/tex/latex/oberdiek/rerunfilecheck.sty
INPUT main.aux
INPUT main.aux
OUTPUT main.aux
INPUT /usr/share/texlive/texmf-dist/tex/context/base/mkii/supp-pdf.mkii
INPUT /usr/share/texlive/texmf-dist/tex/context/base/mkii/supp-pdf.mkii
INPUT /usr/share/texlive/texmf-dist/tex/latex/oberdiek/epstopdf-base.sty
INPUT /usr/share/texlive/texmf-dist/tex/latex/oberdiek/epstopdf-base.sty
INPUT /usr/share/texlive/texmf-dist/tex/latex/oberdiek/grfext.sty
INPUT /usr/share/texlive/texmf-dist/tex/latex/oberdiek/grfext.sty
INPUT /usr/share/texlive/texmf-dist/tex/latex/latexconfig/epstopdf-sys.cfg
INPUT /usr/share/texlive/texmf-dist/tex/latex/latexconfig/epstopdf-sys.cfg
INPUT /usr/share/texlive/texmf-dist/tex/latex/oberdiek/pdflscape.sty
INPUT /usr/share/texlive/texmf-dist/tex/latex/oberdiek/pdflscape.sty
INPUT /usr/share/texlive/texmf-dist/tex/latex/graphics/lscape.sty
INPUT /usr/share/texlive/texmf-dist/tex/latex/graphics/lscape.sty
INPUT /usr/share/texlive/texmf-dist/tex/latex/hyperref/nameref.sty
INPUT /usr/share/texlive/texmf-dist/tex/latex/hyperref/nameref.sty
INPUT /usr/share/texlive/texmf-dist/tex/generic/oberdiek/gettitlestring.sty
INPUT /usr/share/texlive/texmf-dist/tex/generic/oberdiek/gettitlestring.sty
INPUT main.out
INPUT main.out
INPUT main.out
INPUT main.out
INPUT ./main.out
INPUT ./main.out
OUTPUT main.out
INPUT /usr/share/texlive/texmf-dist/fonts/tfm/public/cm/cmr17.tfm
INPUT /usr/share/texlive/texmf-dist/fonts/tfm/public/cm/cmbx12.tfm
INPUT /usr/share/texlive/texmf-dist/fonts/tfm/public/cm/cmr12.tfm
INPUT /usr/share/texlive/texmf-dist/fonts/tfm/public/cm/cmr10.tfm
INPUT section1.tex
INPUT section1.tex
INPUT /usr/share/texlive/texmf-dist/fonts/tfm/public/cm/cmssbx10.tfm
INPUT /usr/share/texlive/texmf-dist/fonts/tfm/public/cm/cmti12.tfm
INPUT /usr/share/texlive/texmf-dist/fonts/tfm/public/cm/cmr8.tfm
INPUT /usr/share/texlive/texmf-dist/fonts/tfm/public/cm/cmr6.tfm
INPUT /usr/share/texlive/texmf-dist/fonts/tfm/public/cm/cmmi12.tfm
INPUT /usr/share/texlive/texmf-dist/fonts/tfm/public/cm/cmmi8.tfm
INPUT /usr/share/texlive/texmf-dist/fonts/tfm/public/cm/cmmi6.tfm
INPUT /usr/share/texlive/texmf-dist/fonts/tfm/public/cm/cmsy10.tfm
INPUT /usr/share/texlive/texmf-dist/fonts/tfm/public/cm/cmsy8.tfm
INPUT /usr/share/texlive/texmf-dist/fonts/tfm/public/cm/cmsy6.tfm
INPUT /usr/share/texlive/texmf-dist/fonts/tfm/public/cm/cmex10.tfm
INPUT /usr/share/texlive/texmf-dist/fonts/tfm/public/amsfonts/cmextra/cmex8.tfm
INPUT /usr/share/texlive/texmf-dist/fonts/tfm/public/amsfonts/cmextra/cmex7.tfm
INPUT /usr/share/texlive/texmf-dist/tex/latex/amsfonts/umsa.fd
INPUT /usr/share/texlive/texmf-dist/tex/latex/amsfonts/umsa.fd
INPUT /usr/share/texlive/texmf-dist/fonts/tfm/public/amsfonts/symbols/msam10.tfm
INPUT /usr/share/texlive/texmf-dist/fonts/tfm/public/amsfonts/symbols/msam10.tfm
INPUT /usr/share/texlive/texmf-dist/fonts/tfm/public/amsfonts/symbols/msam7.tfm
INPUT /usr/share/texlive/texmf-dist/tex/latex/amsfonts/umsb.fd
INPUT /usr/share/texlive/texmf-dist/tex/latex/amsfonts/umsb.fd
INPUT /usr/share/texlive/texmf-dist/fonts/tfm/public/amsfonts/symbols/msbm10.tfm
INPUT /usr/share/texlive/texmf-dist/fonts/tfm/public/amsfonts/symbols/msbm10.tfm
INPUT /usr/share/texlive/texmf-dist/fonts/tfm/public/amsfonts/symbols/msbm7.tfm
INPUT /usr/share/texlive/texmf-dist/tex/latex/jknapltx/ursfs.fd
INPUT /usr/share/texlive/texmf-dist/tex/latex/jknapltx/ursfs.fd
INPUT /usr/share/texlive/texmf-dist/fonts/tfm/public/rsfs/rsfs10.tfm
INPUT /usr/share/texlive/texmf-dist/fonts/tfm/public/rsfs/rsfs10.tfm
INPUT /usr/share/texlive/texmf-dist/fonts/tfm/public/rsfs/rsfs5.tfm
INPUT ./figures/decomposition_steps.pdf_tex
INPUT ./figures/decomposition_steps.pdf_tex
INPUT ./figures/decomposition_steps.pdf
INPUT ./figures/decomposition_steps.pdf
INPUT ./figures/decomposition_steps.pdf
INPUT q1_db1.png
INPUT ./q1_db1.png
INPUT ./q1_db1.png
INPUT /var/lib/texmf/fonts/map/pdftex/updmap/pdftex.map
INPUT q1_db2.png
INPUT ./q1_db2.png
INPUT ./q1_db2.png
INPUT q1_bior2.png
INPUT ./q1_bior2.png
INPUT ./q1_bior2.png
INPUT q1_db1_levels.png
INPUT ./q1_db1_levels.png
INPUT ./q1_db1_levels.png
INPUT compress.m
INPUT /usr/share/texlive/texmf-dist/fonts/tfm/public/cm/cmtt12.tfm
INPUT compress.m
INPUT compress.m
INPUT tv12_methods.png
INPUT ./tv12_methods.png
INPUT ./tv12_methods.png
INPUT banga_comp.png
INPUT ./banga_comp.png
INPUT ./banga_comp.png
INPUT compressed_vs_original_banga.png
INPUT ./compressed_vs_original_banga.png
INPUT ./compressed_vs_original_banga.png
INPUT main.aux
INPUT ./main.out
INPUT ./main.out
INPUT /usr/share/texlive/texmf-dist/fonts/type1/public/amsfonts/cm/cmbx12.pfb
INPUT /usr/share/texlive/texmf-dist/fonts/type1/public/amsfonts/cm/cmmi12.pfb
INPUT /usr/share/texlive/texmf-dist/fonts/type1/public/amsfonts/cm/cmr10.pfb
INPUT /usr/share/texlive/texmf-dist/fonts/type1/public/amsfonts/cm/cmr12.pfb
INPUT /usr/share/texlive/texmf-dist/fonts/type1/public/amsfonts/cm/cmssbx10.pfb
INPUT /usr/share/texlive/texmf-dist/fonts/type1/public/amsfonts/cm/cmsy10.pfb
INPUT /usr/share/texlive/texmf-dist/fonts/type1/public/amsfonts/cm/cmti12.pfb
INPUT /usr/share/texlive/texmf-dist/fonts/type1/public/amsfonts/cm/cmtt12.pfb
